[
  {
    "archived": false,
    "avatar_url": null,
    "can_edit": false,
    "created_at": "2019-11-16T15:06:21.333Z",
    "description": "",
    "edit_path": "/platform3solutions.com/archon-3.1/backend/archon-authentication-service/edit",
    "full_name": "platform3solutions / ARCHON-3.1 / BACKEND / archon-authentication-service",
    "id": 15377775,
    "markdown_description": "",
    "name": "archon-authentication-service",
    "permission": null,
    "relative_path": "/platform3solutions.com/archon-3.1/backend/archon-authentication-service",
    "star_count": 0,
    "type": "project",
    "updated_at": "2019-11-16T15:06:21.333Z",
    "visibility": "private"
  },
  {
    "archived": false,
    "avatar_url": null,
    "can_edit": false,
    "created_at": "2019-11-12T05:32:52.436Z",
    "description": "",
    "edit_path": "/platform3solutions.com/archon-3.1/backend/archon-fileshare-service/edit",
    "full_name": "platform3solutions / ARCHON-3.1 / BACKEND / archon-fileshare-service",
    "id": 15297859,
    "markdown_description": "",
    "name": "archon-fileshare-service",
    "permission": null,
    "relative_path": "/platform3solutions.com/archon-3.1/backend/archon-fileshare-service",
    "star_count": 0,
    "type": "project",
    "updated_at": "2019-11-12T05:32:52.436Z",
    "visibility": "private"
  },
  {
    "archived": false,
    "avatar_url": null,
    "can_edit": false,
    "created_at": "2019-11-08T09:13:11.466Z",
    "description": "",
    "edit_path": "/platform3solutions.com/archon-3.1/backend/archon-internationalization/edit",
    "full_name": "platform3solutions / ARCHON-3.1 / BACKEND / archon-internationalization-jar",
    "id": 15241654,
    "markdown_description": "",
    "name": "archon-internationalization-jar",
    "permission": null,
    "relative_path": "/platform3solutions.com/archon-3.1/backend/archon-internationalization",
    "star_count": 0,
    "type": "project",
    "updated_at": "2019-11-15T13:31:40.314Z",
    "visibility": "private"
  },
  {
    "archived": false,
    "avatar_url": null,
    "can_edit": false,
    "created_at": "2019-11-07T10:26:49.466Z",
    "description": "",
    "edit_path": "/platform3solutions.com/archon-3.1/backend/archon-common-utility/edit",
    "full_name": "platform3solutions / ARCHON-3.1 / BACKEND / archon-common-utility-jar",
    "id": 15224008,
    "markdown_description": "",
    "name": "archon-common-utility-jar",
    "permission": null,
    "relative_path": "/platform3solutions.com/archon-3.1/backend/archon-common-utility",
    "star_count": 0,
    "type": "project",
    "updated_at": "2019-11-08T09:13:50.933Z",
    "visibility": "private"
  },
  {
    "archived": false,
    "avatar_url": null,
    "can_edit": false,
    "created_at": "2019-11-07T10:17:31.666Z",
    "description": "",
    "edit_path": "/platform3solutions.com/archon-3.1/backend/archon-common-beans-dto/edit",
    "full_name": "platform3solutions / ARCHON-3.1 / BACKEND / archon-common-beans-dto-jar",
    "id": 15223831,
    "markdown_description": "",
    "name": "archon-common-beans-dto-jar",
    "permission": null,
    "relative_path": "/platform3solutions.com/archon-3.1/backend/archon-common-beans-dto",
    "star_count": 0,
    "type": "project",
    "updated_at": "2019-11-08T09:14:08.489Z",
    "visibility": "private"
  },
  {
    "archived": false,
    "avatar_url": null,
    "can_edit": false,
    "created_at": "2019-11-07T10:12:50.685Z",
    "description": "",
    "edit_path": "/platform3solutions.com/archon-3.1/backend/archon-cassandra-persistance/edit",
    "full_name": "platform3solutions / ARCHON-3.1 / BACKEND / archon-cassandra-persistance-jar",
    "id": 15223724,
    "markdown_description": "",
    "name": "archon-cassandra-persistance-jar",
    "permission": null,
    "relative_path": "/platform3solutions.com/archon-3.1/backend/archon-cassandra-persistance",
    "star_count": 0,
    "type": "project",
    "updated_at": "2019-11-08T09:14:53.120Z",
    "visibility": "private"
  },
  {
    "archived": false,
    "avatar_url": null,
    "can_edit": false,
    "created_at": "2019-11-07T10:11:02.753Z",
    "description": "",
    "edit_path": "/platform3solutions.com/archon-3.1/backend/archon-mongodb-persistance/edit",
    "full_name": "platform3solutions / ARCHON-3.1 / BACKEND / archon-mongodb-persistance-jar",
    "id": 15223689,
    "markdown_description": "",
    "name": "archon-mongodb-persistance-jar",
    "permission": null,
    "relative_path": "/platform3solutions.com/archon-3.1/backend/archon-mongodb-persistance",
    "star_count": 0,
    "type": "project",
    "updated_at": "2019-11-08T09:15:13.434Z",
    "visibility": "private"
  },
  {
    "archived": false,
    "avatar_url": null,
    "can_edit": false,
    "created_at": "2019-11-06T06:48:11.806Z",
    "description": "The Job Service for Archon",
    "edit_path": "/platform3solutions.com/archon-3.1/backend/archon-job-service/edit",
    "full_name": "platform3solutions / ARCHON-3.1 / BACKEND / archon-job-service",
    "id": 15199788,
    "markdown_description": "<p data-sourcepos=\"1:1-1:26\" dir=\"auto\">The Job Service for Archon</p>",
    "name": "archon-job-service",
    "permission": null,
    "relative_path": "/platform3solutions.com/archon-3.1/backend/archon-job-service",
    "star_count": 0,
    "type": "project",
    "updated_at": "2019-11-06T06:48:11.806Z",
    "visibility": "private"
  },
  {
    "archived": false,
    "avatar_url": null,
    "can_edit": false,
    "created_at": "2019-10-17T17:05:40.214Z",
    "description": "",
    "edit_path": "/platform3solutions.com/archon-3.1/backend/archon-license-service/edit",
    "full_name": "platform3solutions / ARCHON-3.1 / BACKEND / archon-license-service",
    "id": 14877282,
    "markdown_description": "",
    "name": "archon-license-service",
    "permission": null,
    "relative_path": "/platform3solutions.com/archon-3.1/backend/archon-license-service",
    "star_count": 0,
    "type": "project",
    "updated_at": "2019-10-30T09:08:24.777Z",
    "visibility": "private"
  },
  {
    "archived": false,
    "avatar_url": null,
    "can_edit": false,
    "created_at": "2019-09-30T12:25:06.053Z",
    "description": "Sharepoint Service",
    "edit_path": "/platform3solutions.com/archon-3.1/backend/archon-sharepoint-service/edit",
    "full_name": "platform3solutions / ARCHON-3.1 / BACKEND / archon-sharepoint-service",
    "id": 14573942,
    "markdown_description": "<p data-sourcepos=\"1:1-1:18\" dir=\"auto\">Sharepoint Service</p>",
    "name": "archon-sharepoint-service",
    "permission": null,
    "relative_path": "/platform3solutions.com/archon-3.1/backend/archon-sharepoint-service",
    "star_count": 0,
    "type": "project",
    "updated_at": "2019-10-30T08:28:25.917Z",
    "visibility": "private"
  },
  {
    "archived": false,
    "avatar_url": null,
    "can_edit": false,
    "created_at": "2019-09-26T10:05:39.110Z",
    "description": "",
    "edit_path": "/platform3solutions.com/archon-3.1/backend/archon-authorization-service/edit",
    "full_name": "platform3solutions / ARCHON-3.1 / BACKEND / archon-authorization-service",
    "id": 14512201,
    "markdown_description": "",
    "name": "archon-authorization-service",
    "permission": null,
    "relative_path": "/platform3solutions.com/archon-3.1/backend/archon-authorization-service",
    "star_count": 0,
    "type": "project",
    "updated_at": "2019-10-30T08:22:59.723Z",
    "visibility": "private"
  },
  {
    "archived": false,
    "avatar_url": null,
    "can_edit": false,
    "created_at": "2019-09-24T07:38:37.097Z",
    "description": "Metalyzer service for Archon",
    "edit_path": "/platform3solutions.com/archon-3.1/backend/archon-metalyzer-service/edit",
    "full_name": "platform3solutions / ARCHON-3.1 / BACKEND / archon-metalyzer-service",
    "id": 14468037,
    "markdown_description": "<p data-sourcepos=\"1:1-1:28\" dir=\"auto\">Metalyzer service for Archon</p>",
    "name": "archon-metalyzer-service",
    "permission": null,
    "relative_path": "/platform3solutions.com/archon-3.1/backend/archon-metalyzer-service",
    "star_count": 0,
    "type": "project",
    "updated_at": "2019-10-30T08:21:53.341Z",
    "visibility": "private"
  },
  {
    "archived": false,
    "avatar_url": null,
    "can_edit": false,
    "created_at": "2019-09-17T14:55:31.612Z",
    "description": "",
    "edit_path": "/platform3solutions.com/archon-3.1/backend/archon-user-service/edit",
    "full_name": "platform3solutions / ARCHON-3.1 / BACKEND / archon-user-service",
    "id": 14352751,
    "markdown_description": "",
    "name": "archon-user-service",
    "permission": null,
    "relative_path": "/platform3solutions.com/archon-3.1/backend/archon-user-service",
    "star_count": 0,
    "type": "project",
    "updated_at": "2019-10-30T08:09:29.423Z",
    "visibility": "private"
  },
  {
    "archived": false,
    "avatar_url": null,
    "can_edit": false,
    "created_at": "2019-08-23T11:52:09.392Z",
    "description": "",
    "edit_path": "/platform3solutions.com/archon-3.1/backend/gateway-server/edit",
    "full_name": "platform3solutions / ARCHON-3.1 / BACKEND / archon-gateway-server",
    "id": 13954547,
    "markdown_description": "",
    "name": "archon-gateway-server",
    "permission": null,
    "relative_path": "/platform3solutions.com/archon-3.1/backend/gateway-server",
    "star_count": 0,
    "type": "project",
    "updated_at": "2019-10-30T09:29:12.422Z",
    "visibility": "private"
  },
  {
    "archived": false,
    "avatar_url": null,
    "can_edit": false,
    "created_at": "2019-08-23T11:38:50.342Z",
    "description": "",
    "edit_path": "/platform3solutions.com/archon-3.1/backend/notification-channel/edit",
    "full_name": "platform3solutions / ARCHON-3.1 / BACKEND / archon-notification-channel",
    "id": 13954377,
    "markdown_description": "",
    "name": "archon-notification-channel",
    "permission": null,
    "relative_path": "/platform3solutions.com/archon-3.1/backend/notification-channel",
    "star_count": 0,
    "type": "project",
    "updated_at": "2019-10-30T09:29:56.265Z",
    "visibility": "private"
  },
  {
    "archived": false,
    "avatar_url": null,
    "can_edit": false,
    "created_at": "2019-08-23T11:28:14.432Z",
    "description": "",
    "edit_path": "/platform3solutions.com/archon-3.1/backend/audit-module/edit",
    "full_name": "platform3solutions / ARCHON-3.1 / BACKEND / archon-audit-module",
    "id": 13954158,
    "markdown_description": "",
    "name": "archon-audit-module",
    "permission": null,
    "relative_path": "/platform3solutions.com/archon-3.1/backend/audit-module",
    "star_count": 0,
    "type": "project",
    "updated_at": "2019-10-30T09:30:15.288Z",
    "visibility": "private"
  },
  {
    "archived": false,
    "avatar_url": null,
    "can_edit": false,
    "created_at": "2019-08-23T11:02:02.714Z",
    "description": "",
    "edit_path": "/platform3solutions.com/archon-3.1/backend/discovery-server/edit",
    "full_name": "platform3solutions / ARCHON-3.1 / BACKEND / archon-discovery-server",
    "id": 13953754,
    "markdown_description": "",
    "name": "archon-discovery-server",
    "permission": null,
    "relative_path": "/platform3solutions.com/archon-3.1/backend/discovery-server",
    "star_count": 0,
    "type": "project",
    "updated_at": "2019-10-30T09:30:55.831Z",
    "visibility": "private"
  },
  {
    "archived": false,
    "avatar_url": null,
    "can_edit": false,
    "created_at": "2019-08-23T10:31:50.671Z",
    "description": "",
    "edit_path": "/platform3solutions.com/archon-3.1/backend/schemacrawler/edit",
    "full_name": "platform3solutions / ARCHON-3.1 / BACKEND / archon-SchemaCrawler",
    "id": 13953373,
    "markdown_description": "",
    "name": "archon-SchemaCrawler",
    "permission": null,
    "relative_path": "/platform3solutions.com/archon-3.1/backend/schemacrawler",
    "star_count": 0,
    "type": "project",
    "updated_at": "2019-10-30T09:34:36.883Z",
    "visibility": "private"
  },
  {
    "archived": false,
    "avatar_url": null,
    "can_edit": false,
    "created_at": "2019-08-23T10:17:43.861Z",
    "description": "",
    "edit_path": "/platform3solutions.com/archon-3.1/backend/kafka-service/edit",
    "full_name": "platform3solutions / ARCHON-3.1 / BACKEND / archon-kafka-service",
    "id": 13953157,
    "markdown_description": "",
    "name": "archon-kafka-service",
    "permission": null,
    "relative_path": "/platform3solutions.com/archon-3.1/backend/kafka-service",
    "star_count": 0,
    "type": "project",
    "updated_at": "2019-10-30T09:31:34.420Z",
    "visibility": "private"
  },
  {
    "archived": false,
    "avatar_url": null,
    "can_edit": false,
    "created_at": "2019-04-30T14:12:33.852Z",
    "description": "Messaging Service for Archon Application",
    "edit_path": "/platform3solutions.com/archon-3.1/backend/messaging-service/edit",
    "full_name": "platform3solutions / ARCHON-3.1 / BACKEND / archon-messaging-service",
    "id": 12104007,
    "markdown_description": "<p data-sourcepos=\"1:1-1:40\" dir=\"auto\">Messaging Service for Archon Application</p>",
    "name": "archon-messaging-service",
    "permission": null,
    "relative_path": "/platform3solutions.com/archon-3.1/backend/messaging-service",
    "star_count": 0,
    "type": "project",
    "updated_at": "2019-10-30T09:32:04.548Z",
    "visibility": "private"
  }
]